{
  "name": "eulake",
  "hostport": "eoseulake.cern.ch",
  "remotemountdir": "/eos/",
  "localmountdir": "/eos/",
  "options": {
    "debug": 1,
    "lowleveldebug": 0,
    "debuglevel": 6
  },
  "auth": {
    "shared-mount": 1,
    "gsi-first": 1,
    "oauth2": 1,
    "sss": 1,
    "krb5": 0,
    "ssskeytab": "/etc/eos/fuse.sss.keytab"
  }
}
